{
  "description": "Meta Basic Object",
  "type": "object",
  "properties": {
    "_schema": {
      "type": [
        "object",
        "string"
      ]
    },
    "_date": {
      "type": "object",
      "properties": {
        "create": {
          "type": "string"
        },
        "update": {
          "type": "string"
        }
      }
    },
    "author": {
      "type": "object",
      "object": "StringList"
    },
    "head": {
      "type": "object",
      "properties": {
        "title": {
          "type": "string"
        }
      }
    },
    "meta": {
      "type": "object",
      "properties": {
        "lang": {
          "type": "string"
        },
        "description": {
          "type": "string"
        },
        "keywords": {
          "type": "string"
        }
      }
    }
  },
  "required": [
    "date",
    "author",
    "head",
    "meta"
  ]
}
